{
  "3": {
    "inputs": {
      "seed": 157594236966789,
      "steps": 20,
      "cfg": 8,
      "sampler_name": "euler",
      "scheduler": "normal",
      "denoise": 1,
      "model": [
        "4",
        0
      ],
      "positive": [
        "6",
        0
      ],
      "negative": [
        "7",
        0
      ],
      "latent_image": [
        "5",
        0
      ]
    },
    "class_type": "KSampler",
    "_meta": {
      "title": "KSampler"
    }
  },
  "4": {
    "inputs": {
      "ckpt_name": "v1-5-pruned-emaonly.ckpt"
    },
    "class_type": "CheckpointLoaderSimple",
    "_meta": {
      "title": "Load Checkpoint"
    }
  },
  "5": {
    "inputs": {
      "width": 512,
      "height": 512,
      "batch_size": 1
    },
    "class_type": "EmptyLatentImage",
    "_meta": {
      "title": "Empty Latent Image"
    }
  },
  "6": {
    "inputs": {
      "text": "beautiful scenery nature glass bottle landscape, , purple galaxy bottle,",
      "clip": [
        "4",
        1
      ]
    },
    "class_type": "CLIPTextEncode",
    "_meta": {
      "title": "CLIP Text Encode (Prompt)"
    }
  },
  "7": {
    "inputs": {
      "text": "text, watermark",
      "clip": [
        "4",
        1
      ]
    },
    "class_type": "CLIPTextEncode",
    "_meta": {
      "title": "CLIP Text Encode (Prompt)"
    }
  },
  "8": {
    "inputs": {
      "samples": [
        "3",
        0
      ],
      "vae": [
        "4",
        2
      ]
    },
    "class_type": "VAEDecode",
    "_meta": {
      "title": "VAE Decode"
    }
  },
  "9": {
    "inputs": {
      "filename_prefix": "ComfyUI",
      "images": [
        "8",
        0
      ]
    },
    "class_type": "SaveImage",
    "_meta": {
      "title": "Save Image"
    }
  },
  "10": {
    "inputs": {
      "seed": 896803338241952,
      "steps": 30,
      "cfg": 7,
      "sampler_name": "dpmpp_2m",
      "scheduler": "normal",
      "denoise": 1,
      "model": [
        "11",
        0
      ],
      "positive": [
        "13",
        0
      ],
      "negative": [
        "14",
        0
      ],
      "latent_image": [
        "12",
        0
      ]
    },
    "class_type": "KSampler",
    "_meta": {
      "title": "KSampler"
    }
  },
  "11": {
    "inputs": {
      "ckpt_name": "sd15-absreal.safetensors"
    },
    "class_type": "CheckpointLoaderSimple",
    "_meta": {
      "title": "Load Checkpoint"
    }
  },
  "12": {
    "inputs": {
      "width": 512,
      "height": 512,
      "batch_size": 1
    },
    "class_type": "EmptyLatentImage",
    "_meta": {
      "title": "Empty Latent Image"
    }
  },
  "13": {
    "inputs": {
      "text": "A stunning intricate full color portrait of (sks person:1), wearing a black turtleneck, epic character composition, by ilya kuvshinov, alessio albi, nina masic, sharp focus, natural lighting, subsurface scattering, f2, 35mm, film grain, Chuck Norris, in s1l0A1 style",
      "clip": [
        "11",
        1
      ]
    },
    "class_type": "CLIPTextEncode",
    "_meta": {
      "title": "CLIP Text Encode (Prompt)"
    }
  },
  "14": {
    "inputs": {
      "text": "cartoon, 3d, ((disfigured)), ((bad art)), ((deformed)), ((poorly drawn)), ((extra limbs)), ((b&w)), weird colors, blurry, eyes of different color",
      "clip": [
        "11",
        1
      ]
    },
    "class_type": "CLIPTextEncode",
    "_meta": {
      "title": "CLIP Text Encode (Prompt)"
    }
  },
  "15": {
    "inputs": {
      "samples": [
        "10",
        0
      ],
      "vae": [
        "11",
        2
      ]
    },
    "class_type": "VAEDecode",
    "_meta": {
      "title": "VAE Decode"
    }
  },
  "16": {
    "inputs": {
      "filename_prefix": "ComfyUI",
      "images": [
        "20",
        0
      ]
    },
    "class_type": "SaveImage",
    "_meta": {
      "title": "Save Image"
    }
  },
  "17": {
    "inputs": {
      "model_name": "4x-realesrgan.pth"
    },
    "class_type": "UpscaleModelLoader",
    "_meta": {
      "title": "Load Upscale Model"
    }
  },
  "18": {
    "inputs": {
      "upscale_model": [
        "17",
        0
      ],
      "image": [
        "15",
        0
      ]
    },
    "class_type": "ImageUpscaleWithModel",
    "_meta": {
      "title": "Upscale Image (using Model)"
    }
  },
  "19": {
    "inputs": {
      "model_name": "1x-skindetail.pth"
    },
    "class_type": "UpscaleModelLoader",
    "_meta": {
      "title": "Load Upscale Model"
    }
  },
  "20": {
    "inputs": {
      "upscale_model": [
        "19",
        0
      ],
      "image": [
        "18",
        0
      ]
    },
    "class_type": "ImageUpscaleWithModel",
    "_meta": {
      "title": "Upscale Image (using Model)"
    }
  }
}